# Blender v2.77 (sub 0) OBJ File: ''
# www.blender.org
mtllib ball.mtl
o Sphere
v 0.781926 1.508243 0.151537
v 0.594333 1.451338 0.151537
v 0.421446 1.358928 0.151537
v 0.269909 1.234565 0.151537
v 0.145546 1.083028 0.151537
v 0.053137 0.910142 0.151537
v -0.003769 0.722549 0.151537
v -0.022984 0.527458 0.151537
v -0.003769 0.332368 0.151537
v 0.053137 0.144775 0.151537
v 0.145546 -0.028112 0.151537
v 0.269909 -0.179649 0.151537
v 0.421446 -0.304011 0.151537
v 0.594333 -0.396421 0.151537
v 0.781926 -0.453327 0.151537
v 0.785674 1.508243 0.113477
v 0.601686 1.451338 0.076879
v 0.432121 1.358928 0.043150
v 0.283496 1.234565 0.013587
v 0.161523 1.083028 -0.010675
v 0.070889 0.910142 -0.028703
v 0.015076 0.722549 -0.039805
v -0.003769 0.527458 -0.043554
v 0.015076 0.332368 -0.039805
v 0.070889 0.144775 -0.028703
v 0.161523 -0.028112 -0.010675
v 0.283496 -0.179649 0.013587
v 0.432121 -0.304011 0.043150
v 0.601686 -0.396421 0.076879
v 0.785675 -0.453327 0.113477
v 0.796776 1.508243 0.076879
v 0.623463 1.451338 0.005090
v 0.463736 1.358928 -0.061071
v 0.323735 1.234565 -0.119061
v 0.208838 1.083028 -0.166653
v 0.123463 0.910142 -0.202017
v 0.070889 0.722549 -0.223794
v 0.053137 0.527458 -0.231147
v 0.070889 0.332368 -0.223794
v 0.123463 0.144775 -0.202017
v 0.208838 -0.028112 -0.166653
v 0.323735 -0.179649 -0.119061
v 0.463736 -0.304011 -0.061071
v 0.623463 -0.396421 0.005090
v 0.796776 -0.453327 0.076879
v 0.814804 1.508243 0.043150
v 0.658826 1.451338 -0.061071
v 0.515076 1.358928 -0.157122
v 0.389078 1.234565 -0.241311
v 0.285674 1.083028 -0.310403
v 0.208838 0.910142 -0.361743
v 0.161523 0.722549 -0.393358
v 0.145547 0.527458 -0.404034
v 0.161523 0.332368 -0.393358
v 0.208838 0.144775 -0.361743
v 0.285674 -0.028112 -0.310403
v 0.389078 -0.179649 -0.241311
v 0.515076 -0.304011 -0.157122
v 0.658827 -0.396421 -0.061071
v 0.814805 -0.453327 0.043150
v 0.839067 1.508243 0.013587
v 0.706418 1.451338 -0.119061
v 0.584169 1.358928 -0.241311
v 0.477016 1.234565 -0.348463
v 0.389078 1.083028 -0.436401
v 0.323735 0.910142 -0.501745
v 0.283496 0.722549 -0.541983
v 0.269910 0.527458 -0.555570
v 0.283496 0.332368 -0.541983
v 0.323735 0.144775 -0.501745
v 0.389078 -0.028112 -0.436401
v 0.477016 -0.179649 -0.348463
v 0.584169 -0.304011 -0.241311
v 0.706418 -0.396421 -0.119061
v 0.839067 -0.453327 0.013587
v 0.868630 1.508243 -0.010675
v 0.764409 1.451338 -0.166653
v 0.668358 1.358928 -0.310403
v 0.584169 1.234565 -0.436401
v 0.515077 1.083028 -0.539805
v 0.463736 0.910142 -0.616641
v 0.432121 0.722549 -0.663956
v 0.421446 0.527458 -0.679933
v 0.432121 0.332368 -0.663956
v 0.463736 0.144775 -0.616641
v 0.515077 -0.028112 -0.539805
v 0.584169 -0.179649 -0.436401
v 0.668358 -0.304011 -0.310403
v 0.764409 -0.396421 -0.166653
v 0.868630 -0.453327 -0.010675
v 0.902358 1.508243 -0.028703
v 0.830570 1.451338 -0.202017
v 0.764409 1.358928 -0.361743
v 0.706418 1.234565 -0.501745
v 0.658827 1.083028 -0.616641
v 0.623463 0.910142 -0.702017
v 0.601686 0.722549 -0.754591
v 0.594333 0.527458 -0.772343
v 0.601686 0.332368 -0.754591
v 0.623463 0.144775 -0.702017
v 0.658827 -0.028112 -0.616641
v 0.706418 -0.179649 -0.501745
v 0.764409 -0.304011 -0.361743
v 0.830570 -0.396421 -0.202017
v 0.902359 -0.453327 -0.028703
v 0.938956 1.508243 -0.039805
v 0.902359 1.451338 -0.223794
v 0.868630 1.358928 -0.393358
v 0.839067 1.234565 -0.541983
v 0.814805 1.083028 -0.663956
v 0.796776 0.910142 -0.754591
v 0.785675 0.722549 -0.810403
v 0.781926 0.527458 -0.829249
v 0.785675 0.332368 -0.810403
v 0.796776 0.144775 -0.754591
v 0.814805 -0.028112 -0.663956
v 0.839067 -0.179649 -0.541983
v 0.868630 -0.304011 -0.393358
v 0.902359 -0.396421 -0.223794
v 0.938956 -0.453327 -0.039805
v 0.977016 1.508243 -0.043554
v 0.977016 1.451338 -0.231147
v 0.977016 1.358928 -0.404034
v 0.977016 1.234565 -0.555570
v 0.977016 1.083028 -0.679933
v 0.977016 0.910142 -0.772343
v 0.977017 0.722549 -0.829248
v 0.977016 0.527458 -0.848463
v 0.977017 0.332368 -0.829248
v 0.977016 0.144775 -0.772343
v 0.977016 -0.028112 -0.679933
v 0.977016 -0.179649 -0.555570
v 0.977016 -0.304011 -0.404033
v 0.977016 -0.396421 -0.231147
v 0.977016 -0.453327 -0.043553
v 1.015077 1.508243 -0.039805
v 1.051674 1.451338 -0.223794
v 1.085403 1.358928 -0.393358
v 1.114966 1.234565 -0.541983
v 1.139228 1.083028 -0.663956
v 1.157256 0.910142 -0.754591
v 1.168358 0.722549 -0.810403
v 1.172107 0.527458 -0.829249
v 1.168358 0.332368 -0.810403
v 1.157256 0.144775 -0.754591
v 1.139228 -0.028112 -0.663956
v 1.114966 -0.179649 -0.541983
v 1.085403 -0.304011 -0.393358
v 1.051674 -0.396421 -0.223794
v 1.015077 -0.453327 -0.039805
v 1.051674 1.508243 -0.028703
v 1.123463 1.451338 -0.202017
v 1.189624 1.358928 -0.361743
v 1.247615 1.234565 -0.501745
v 1.295206 1.083028 -0.616641
v 1.330570 0.910142 -0.702017
v 1.352347 0.722549 -0.754590
v 1.359700 0.527458 -0.772343
v 1.352347 0.332368 -0.754590
v 1.330570 0.144775 -0.702017
v 1.295206 -0.028112 -0.616641
v 1.247615 -0.179649 -0.501745
v 1.189624 -0.304011 -0.361743
v 1.123463 -0.396421 -0.202017
v 1.051674 -0.453327 -0.028703
v 1.085403 1.508243 -0.010675
v 1.189624 1.451338 -0.166653
v 1.285675 1.358928 -0.310403
v 1.369864 1.234565 -0.436401
v 1.438956 1.083028 -0.539805
v 1.490296 0.910142 -0.616641
v 1.521912 0.722549 -0.663956
v 1.532587 0.527458 -0.679933
v 1.521912 0.332368 -0.663956
v 1.490296 0.144775 -0.616641
v 1.438956 -0.028112 -0.539805
v 1.369864 -0.179649 -0.436401
v 1.285675 -0.304011 -0.310403
v 1.189624 -0.396421 -0.166653
v 1.085403 -0.453327 -0.010675
v 1.114966 1.508243 0.013587
v 1.247615 1.451338 -0.119061
v 1.369864 1.358928 -0.241311
v 1.477016 1.234565 -0.348463
v 1.564954 1.083028 -0.436401
v 1.630298 0.910142 -0.501745
v 1.670536 0.722549 -0.541983
v 1.684123 0.527458 -0.555570
v 1.670536 0.332368 -0.541983
v 1.630298 0.144775 -0.501745
v 1.564954 -0.028112 -0.436401
v 1.477016 -0.179649 -0.348463
v 1.369864 -0.304011 -0.241311
v 1.247615 -0.396421 -0.119061
v 1.114966 -0.453327 0.013587
v 1.139228 1.508243 0.043150
v 1.295206 1.451338 -0.061071
v 1.438956 1.358928 -0.157121
v 1.564954 1.234565 -0.241311
v 1.668358 1.083028 -0.310403
v 1.745194 0.910142 -0.361743
v 1.792510 0.722549 -0.393358
v 1.808486 0.527458 -0.404033
v 1.792510 0.332368 -0.393358
v 1.745194 0.144775 -0.361743
v 1.668358 -0.028112 -0.310403
v 1.564954 -0.179649 -0.241311
v 1.438956 -0.304011 -0.157121
v 1.295206 -0.396421 -0.061071
v 1.139228 -0.453327 0.043150
v 1.157257 1.508243 0.076879
v 1.330570 1.451338 0.005090
v 1.490296 1.358928 -0.061071
v 1.630298 1.234565 -0.119061
v 1.745194 1.083028 -0.166653
v 1.830570 0.910142 -0.202017
v 1.883144 0.722549 -0.223793
v 1.900896 0.527458 -0.231147
v 1.883144 0.332368 -0.223793
v 1.830570 0.144775 -0.202017
v 1.745194 -0.028112 -0.166653
v 1.630298 -0.179649 -0.119061
v 1.490296 -0.304011 -0.061071
v 1.330570 -0.396421 0.005090
v 1.157256 -0.453327 0.076879
v 1.168358 1.508243 0.113477
v 1.352347 1.451338 0.076879
v 1.521912 1.358928 0.043150
v 1.670536 1.234565 0.013587
v 1.792509 1.083028 -0.010675
v 1.883144 0.910142 -0.028703
v 1.938956 0.722549 -0.039805
v 1.957802 0.527458 -0.043553
v 1.938956 0.332368 -0.039805
v 1.883144 0.144775 -0.028703
v 1.792509 -0.028112 -0.010675
v 1.670536 -0.179649 0.013587
v 1.521912 -0.304011 0.043151
v 1.352347 -0.396421 0.076879
v 1.168358 -0.453327 0.113477
v 1.172107 1.508243 0.151537
v 1.359700 1.451338 0.151537
v 1.532587 1.358928 0.151537
v 1.684123 1.234565 0.151537
v 1.808486 1.083028 0.151537
v 1.900896 0.910142 0.151537
v 1.957801 0.722549 0.151537
v 1.977016 0.527458 0.151537
v 1.957801 0.332368 0.151537
v 1.900896 0.144775 0.151537
v 1.808486 -0.028112 0.151537
v 1.684123 -0.179649 0.151537
v 1.532587 -0.304011 0.151537
v 1.359700 -0.396421 0.151537
v 1.172107 -0.453327 0.151537
v 0.977016 -0.472542 0.151537
v 1.168358 1.508243 0.189597
v 1.352347 1.451338 0.226195
v 1.521912 1.358928 0.259923
v 1.670536 1.234565 0.289487
v 1.792509 1.083028 0.313749
v 1.883144 0.910142 0.331777
v 1.938956 0.722549 0.342879
v 1.957802 0.527458 0.346627
v 1.938956 0.332368 0.342879
v 1.883144 0.144775 0.331777
v 1.792509 -0.028112 0.313749
v 1.670536 -0.179649 0.289487
v 1.521911 -0.304011 0.259923
v 1.352347 -0.396421 0.226195
v 1.168358 -0.453327 0.189597
v 1.157256 1.508243 0.226195
v 1.330570 1.451338 0.297983
v 1.490296 1.358928 0.364144
v 1.630298 1.234565 0.422135
v 1.745194 1.083028 0.469727
v 1.830570 0.910142 0.505090
v 1.883144 0.722549 0.526867
v 1.900896 0.527458 0.534220
v 1.883144 0.332368 0.526867
v 1.830570 0.144775 0.505090
v 1.745194 -0.028112 0.469727
v 1.630298 -0.179649 0.422135
v 1.490296 -0.304011 0.364144
v 1.330570 -0.396421 0.297983
v 1.157256 -0.453327 0.226195
v 1.139228 1.508243 0.259923
v 1.295206 1.451338 0.364144
v 1.438956 1.358928 0.460195
v 1.564954 1.234565 0.544384
v 1.668358 1.083028 0.613477
v 1.745194 0.910142 0.664817
v 1.792509 0.722549 0.696432
v 1.808486 0.527458 0.707107
v 1.792509 0.332368 0.696432
v 1.745194 0.144775 0.664817
v 1.668358 -0.028112 0.613477
v 1.564954 -0.179649 0.544384
v 1.438956 -0.304011 0.460195
v 1.295206 -0.396421 0.364144
v 1.139228 -0.453327 0.259923
v 1.114966 1.508243 0.289487
v 1.247614 1.451338 0.422135
v 1.369864 1.358928 0.544384
v 1.477016 1.234565 0.651537
v 1.564954 1.083028 0.739475
v 1.630298 0.910142 0.804818
v 1.670536 0.722549 0.845057
v 1.684123 0.527458 0.858644
v 1.670536 0.332368 0.845057
v 1.630298 0.144775 0.804818
v 1.564954 -0.028112 0.739475
v 1.477016 -0.179649 0.651537
v 1.369864 -0.304011 0.544384
v 1.247614 -0.396421 0.422135
v 1.114966 -0.453327 0.289487
v 1.085403 1.508243 0.313749
v 1.189624 1.451338 0.469727
v 1.285675 1.358928 0.613477
v 1.369864 1.234565 0.739475
v 1.438956 1.083028 0.842878
v 1.490296 0.910142 0.919715
v 1.521911 0.722549 0.967030
v 1.532586 0.527458 0.983007
v 1.521911 0.332368 0.967030
v 1.490296 0.144775 0.919715
v 1.438956 -0.028112 0.842878
v 1.369864 -0.179649 0.739475
v 1.285675 -0.304011 0.613477
v 1.189624 -0.396421 0.469726
v 1.085403 -0.453327 0.313749
v 1.051674 1.508243 0.331777
v 1.123463 1.451338 0.505090
v 1.189624 1.358928 0.664817
v 1.247614 1.234565 0.804818
v 1.295206 1.083028 0.919714
v 1.330570 0.910142 1.005090
v 1.352346 0.722549 1.057664
v 1.359700 0.527458 1.075416
v 1.352346 0.332368 1.057664
v 1.330570 0.144775 1.005090
v 1.295206 -0.028112 0.919714
v 1.247614 -0.179649 0.804818
v 1.189624 -0.304011 0.664817
v 1.123463 -0.396421 0.505090
v 1.051674 -0.453327 0.331777
v 1.015077 1.508243 0.342879
v 1.051674 1.451338 0.526867
v 1.085403 1.358928 0.696432
v 1.114966 1.234565 0.845057
v 1.139228 1.083028 0.967030
v 1.157256 0.910142 1.057664
v 1.168358 0.722549 1.113476
v 1.172107 0.527458 1.132322
v 1.168358 0.332368 1.113476
v 1.157256 0.144775 1.057664
v 1.139228 -0.028112 0.967030
v 1.114966 -0.179649 0.845057
v 1.085403 -0.304011 0.696432
v 1.051674 -0.396421 0.526867
v 1.015077 -0.453327 0.342879
v 0.977016 1.508243 0.346627
v 0.977016 1.451338 0.534220
v 0.977016 1.358928 0.707107
v 0.977016 1.234565 0.858644
v 0.977016 1.083028 0.983006
v 0.977016 0.910142 1.075416
v 0.977016 0.722549 1.132322
v 0.977016 0.527458 1.151537
v 0.977016 0.332368 1.132322
v 0.977016 0.144775 1.075416
v 0.977016 -0.028112 0.983006
v 0.977016 -0.179649 0.858644
v 0.977016 -0.304011 0.707107
v 0.977016 -0.396421 0.534220
v 0.977016 -0.453327 0.346627
v 0.938956 1.508243 0.342879
v 0.902359 1.451338 0.526867
v 0.868630 1.358928 0.696432
v 0.839067 1.234565 0.845057
v 0.814805 1.083028 0.967030
v 0.796776 0.910142 1.057664
v 0.785675 0.722549 1.113476
v 0.781926 0.527458 1.132322
v 0.785675 0.332368 1.113476
v 0.796776 0.144775 1.057664
v 0.814805 -0.028112 0.967030
v 0.839067 -0.179649 0.845057
v 0.868630 -0.304011 0.696432
v 0.902359 -0.396421 0.526867
v 0.938956 -0.453327 0.342879
v 0.902359 1.508243 0.331777
v 0.830570 1.451338 0.505090
v 0.764409 1.358928 0.664817
v 0.706418 1.234565 0.804818
v 0.658827 1.083028 0.919714
v 0.623463 0.910142 1.005090
v 0.601686 0.722549 1.057664
v 0.594333 0.527458 1.075416
v 0.601686 0.332368 1.057664
v 0.623463 0.144775 1.005090
v 0.658827 -0.028112 0.919714
v 0.706418 -0.179649 0.804818
v 0.764409 -0.304011 0.664817
v 0.830570 -0.396421 0.505090
v 0.902359 -0.453327 0.331777
v 0.868630 1.508243 0.313749
v 0.764409 1.451338 0.469726
v 0.668358 1.358928 0.613477
v 0.584169 1.234565 0.739475
v 0.515077 1.083028 0.842878
v 0.463736 0.910142 0.919715
v 0.432121 0.722549 0.967029
v 0.421446 0.527458 0.983006
v 0.432121 0.332368 0.967029
v 0.463736 0.144775 0.919715
v 0.515077 -0.028112 0.842878
v 0.584169 -0.179649 0.739475
v 0.668358 -0.304011 0.613476
v 0.764409 -0.396421 0.469726
v 0.868630 -0.453327 0.313748
v 0.839067 1.508243 0.289487
v 0.706418 1.451338 0.422135
v 0.584169 1.358928 0.544384
v 0.477016 1.234565 0.651537
v 0.389079 1.083028 0.739474
v 0.323735 0.910142 0.804818
v 0.283497 0.722549 0.845056
v 0.269910 0.527458 0.858643
v 0.283497 0.332368 0.845056
v 0.323735 0.144775 0.804818
v 0.389079 -0.028112 0.739474
v 0.477016 -0.179649 0.651537
v 0.584169 -0.304011 0.544384
v 0.706418 -0.396421 0.422135
v 0.839067 -0.453327 0.289487
v 0.814805 1.508243 0.259923
v 0.658827 1.451338 0.364144
v 0.515077 1.358928 0.460195
v 0.389079 1.234565 0.544384
v 0.285675 1.083028 0.613476
v 0.208839 0.910142 0.664817
v 0.161524 0.722549 0.696431
v 0.145547 0.527458 0.707107
v 0.161524 0.332368 0.696431
v 0.208839 0.144775 0.664817
v 0.285675 -0.028112 0.613476
v 0.389079 -0.179649 0.544384
v 0.515077 -0.304011 0.460195
v 0.658827 -0.396421 0.364144
v 0.814805 -0.453327 0.259923
v 0.977016 1.527458 0.151537
v 0.796776 1.508243 0.226195
v 0.623463 1.451338 0.297983
v 0.463737 1.358928 0.364144
v 0.323735 1.234565 0.422135
v 0.208839 1.083028 0.469726
v 0.123463 0.910142 0.505090
v 0.070889 0.722549 0.526867
v 0.053137 0.527458 0.534220
v 0.070889 0.332368 0.526867
v 0.123463 0.144775 0.505090
v 0.208839 -0.028112 0.469726
v 0.323735 -0.179649 0.422135
v 0.463737 -0.304011 0.364144
v 0.623463 -0.396421 0.297983
v 0.796777 -0.453327 0.226195
v 0.785675 1.508243 0.189597
v 0.601686 1.451338 0.226195
v 0.432121 1.358928 0.259923
v 0.283497 1.234565 0.289486
v 0.161524 1.083028 0.313748
v 0.070889 0.910142 0.331777
v 0.015077 0.722549 0.342878
v -0.003768 0.527458 0.346627
v 0.015077 0.332368 0.342878
v 0.070889 0.144775 0.331777
v 0.161524 -0.028112 0.313748
v 0.283497 -0.179649 0.289486
v 0.432122 -0.304011 0.259923
v 0.601686 -0.396421 0.226195
v 0.785675 -0.453327 0.189597
vn -0.6332 0.7715 -0.0624
vn -0.7708 -0.6326 -0.0759
vn -0.7708 0.6326 -0.0759
vn -0.6332 -0.7715 -0.0624
vn -0.8786 0.4696 -0.0865
vn -0.4709 -0.8810 -0.0464
vn -0.9527 0.2890 -0.0938
vn -0.2902 -0.9565 -0.0286
vn -0.9904 0.0975 -0.0975
vn -0.0980 0.9951 -0.0096
vn -0.0980 -0.9951 -0.0097
vn -0.9904 -0.0975 -0.0975
vn -0.2902 0.9565 -0.0286
vn -0.9527 -0.2890 -0.0938
vn -0.4709 0.8810 -0.0464
vn -0.8786 -0.4696 -0.0865
vn -0.4528 0.8810 -0.1374
vn -0.8448 -0.4696 -0.2563
vn -0.6088 0.7715 -0.1847
vn -0.7412 -0.6326 -0.2248
vn -0.7412 0.6326 -0.2248
vn -0.6088 -0.7715 -0.1847
vn -0.8448 0.4696 -0.2563
vn -0.4528 -0.8810 -0.1374
vn -0.9161 0.2890 -0.2779
vn -0.2790 -0.9565 -0.0846
vn -0.9524 0.0975 -0.2889
vn -0.0942 0.9951 -0.0286
vn -0.0942 -0.9951 -0.0286
vn -0.9524 -0.0975 -0.2889
vn -0.2790 0.9565 -0.0846
vn -0.9161 -0.2890 -0.2779
vn -0.8443 0.2890 -0.4513
vn -0.2571 -0.9565 -0.1374
vn -0.8777 0.0975 -0.4691
vn -0.0869 0.9951 -0.0464
vn -0.0869 -0.9951 -0.0464
vn -0.8777 -0.0975 -0.4691
vn -0.2571 0.9565 -0.1374
vn -0.8443 -0.2890 -0.4513
vn -0.4173 0.8810 -0.2231
vn -0.7786 -0.4696 -0.4162
vn -0.5611 0.7715 -0.2999
vn -0.6831 -0.6326 -0.3651
vn -0.6831 0.6326 -0.3651
vn -0.5611 -0.7715 -0.2999
vn -0.7786 0.4696 -0.4162
vn -0.4173 -0.8810 -0.2230
vn -0.6825 -0.4696 -0.5601
vn -0.4918 0.7715 -0.4036
vn -0.5987 -0.6326 -0.4913
vn -0.5987 0.6326 -0.4913
vn -0.4918 -0.7715 -0.4036
vn -0.6825 0.4696 -0.5601
vn -0.3658 -0.8810 -0.3002
vn -0.7400 0.2890 -0.6073
vn -0.2254 -0.9565 -0.1850
vn -0.7693 0.0976 -0.6314
vn -0.0761 0.9951 -0.0625
vn -0.0761 -0.9951 -0.0625
vn -0.7693 -0.0975 -0.6314
vn -0.2254 0.9565 -0.1850
vn -0.7400 -0.2890 -0.6073
vn -0.3658 0.8810 -0.3002
vn -0.1850 -0.9565 -0.2254
vn -0.6314 0.0976 -0.7693
vn -0.0625 0.9951 -0.0761
vn -0.0625 -0.9951 -0.0761
vn -0.6314 -0.0976 -0.7693
vn -0.1850 0.9565 -0.2254
vn -0.6073 -0.2890 -0.7400
vn -0.3002 0.8810 -0.3658
vn -0.5601 -0.4696 -0.6825
vn -0.4036 0.7715 -0.4918
vn -0.4913 -0.6326 -0.5987
vn -0.4913 0.6326 -0.5987
vn -0.4036 -0.7715 -0.4918
vn -0.5601 0.4696 -0.6825
vn -0.3002 -0.8810 -0.3658
vn -0.6073 0.2890 -0.7400
vn -0.2999 0.7715 -0.5611
vn -0.3651 -0.6326 -0.6831
vn -0.3651 0.6326 -0.6831
vn -0.2999 -0.7715 -0.5611
vn -0.4162 0.4696 -0.7786
vn -0.2230 -0.8810 -0.4173
vn -0.4513 0.2890 -0.8443
vn -0.1374 -0.9565 -0.2571
vn -0.4691 0.0976 -0.8777
vn -0.0464 0.9951 -0.0869
vn -0.0464 -0.9951 -0.0869
vn -0.4691 -0.0976 -0.8777
vn -0.1374 0.9565 -0.2571
vn -0.4513 -0.2890 -0.8443
vn -0.2230 0.8810 -0.4173
vn -0.4162 -0.4696 -0.7786
vn -0.2889 0.0976 -0.9524
vn -0.0286 0.9951 -0.0942
vn -0.0286 -0.9951 -0.0942
vn -0.2889 -0.0976 -0.9524
vn -0.0846 0.9565 -0.2790
vn -0.2779 -0.2890 -0.9161
vn -0.1374 0.8810 -0.4528
vn -0.2563 -0.4696 -0.8448
vn -0.1847 0.7715 -0.6088
vn -0.2248 -0.6326 -0.7412
vn -0.2248 0.6326 -0.7412
vn -0.1847 -0.7715 -0.6088
vn -0.2563 0.4696 -0.8448
vn -0.1374 -0.8810 -0.4528
vn -0.2779 0.2890 -0.9161
vn -0.0846 -0.9565 -0.2790
vn -0.0759 -0.6326 -0.7708
vn -0.0759 0.6326 -0.7708
vn -0.0624 -0.7715 -0.6332
vn -0.0865 0.4696 -0.8786
vn -0.0464 -0.8810 -0.4709
vn -0.0938 0.2890 -0.9527
vn -0.0286 -0.9565 -0.2902
vn -0.0975 0.0976 -0.9904
vn -0.0097 0.9951 -0.0980
vn -0.0097 -0.9951 -0.0980
vn -0.0975 -0.0976 -0.9904
vn -0.0286 0.9565 -0.2902
vn -0.0938 -0.2890 -0.9527
vn -0.0464 0.8810 -0.4709
vn -0.0865 -0.4696 -0.8786
vn -0.0624 0.7715 -0.6332
vn 0.0097 -0.9951 -0.0980
vn 0.0975 -0.0976 -0.9904
vn 0.0286 0.9565 -0.2902
vn 0.0938 -0.2890 -0.9527
vn 0.0464 0.8810 -0.4709
vn 0.0865 -0.4696 -0.8786
vn 0.0624 0.7715 -0.6332
vn 0.0759 -0.6326 -0.7708
vn 0.0759 0.6326 -0.7708
vn 0.0624 -0.7715 -0.6332
vn 0.0865 0.4696 -0.8786
vn 0.0464 -0.8810 -0.4709
vn 0.0938 0.2890 -0.9527
vn 0.0286 -0.9565 -0.2902
vn 0.0976 0.0976 -0.9904
vn 0.0097 0.9951 -0.0980
vn 0.1847 -0.7715 -0.6088
vn 0.2563 0.4696 -0.8448
vn 0.1374 -0.8810 -0.4528
vn 0.2779 0.2890 -0.9161
vn 0.0846 -0.9565 -0.2790
vn 0.2889 0.0976 -0.9524
vn 0.0286 0.9951 -0.0942
vn 0.0286 -0.9951 -0.0942
vn 0.2889 -0.0976 -0.9524
vn 0.0846 0.9565 -0.2790
vn 0.2779 -0.2890 -0.9161
vn 0.1374 0.8810 -0.4528
vn 0.2563 -0.4696 -0.8448
vn 0.1847 0.7715 -0.6088
vn 0.2248 -0.6326 -0.7412
vn 0.2248 0.6326 -0.7412
vn 0.1374 0.9565 -0.2571
vn 0.4513 -0.2890 -0.8443
vn 0.2231 0.8810 -0.4173
vn 0.4162 -0.4696 -0.7786
vn 0.2999 0.7715 -0.5611
vn 0.3651 -0.6326 -0.6831
vn 0.3651 0.6326 -0.6831
vn 0.2999 -0.7715 -0.5611
vn 0.4162 0.4696 -0.7786
vn 0.2230 -0.8810 -0.4173
vn 0.4513 0.2890 -0.8443
vn 0.1374 -0.9565 -0.2571
vn 0.4691 0.0976 -0.8777
vn 0.0464 0.9951 -0.0869
vn 0.0464 -0.9951 -0.0869
vn 0.4691 -0.0976 -0.8777
vn 0.5601 0.4696 -0.6825
vn 0.3002 -0.8810 -0.3658
vn 0.6073 0.2890 -0.7400
vn 0.1850 -0.9565 -0.2254
vn 0.6314 0.0976 -0.7693
vn 0.0625 0.9951 -0.0761
vn 0.0625 -0.9951 -0.0761
vn 0.6314 -0.0976 -0.7693
vn 0.1850 0.9565 -0.2254
vn 0.6073 -0.2890 -0.7400
vn 0.3002 0.8810 -0.3658
vn 0.5601 -0.4696 -0.6825
vn 0.4036 0.7715 -0.4918
vn 0.4913 -0.6326 -0.5987
vn 0.4913 0.6326 -0.5987
vn 0.4036 -0.7715 -0.4918
vn 0.7400 -0.2890 -0.6073
vn 0.3658 0.8810 -0.3002
vn 0.6825 -0.4696 -0.5601
vn 0.4918 0.7715 -0.4036
vn 0.5987 -0.6326 -0.4913
vn 0.5987 0.6326 -0.4913
vn 0.4918 -0.7715 -0.4036
vn 0.6825 0.4696 -0.5601
vn 0.3658 -0.8810 -0.3002
vn 0.7400 0.2890 -0.6073
vn 0.2254 -0.9565 -0.1850
vn 0.7693 0.0976 -0.6314
vn 0.0761 0.9951 -0.0625
vn 0.0761 -0.9951 -0.0625
vn 0.7693 -0.0976 -0.6314
vn 0.2254 0.9565 -0.1850
vn 0.4173 -0.8810 -0.2230
vn 0.8443 0.2890 -0.4513
vn 0.2571 -0.9565 -0.1374
vn 0.8777 0.0976 -0.4691
vn 0.0869 0.9951 -0.0464
vn 0.0869 -0.9951 -0.0464
vn 0.8777 -0.0976 -0.4691
vn 0.2571 0.9565 -0.1374
vn 0.8443 -0.2890 -0.4513
vn 0.4173 0.8810 -0.2231
vn 0.7786 -0.4696 -0.4162
vn 0.5611 0.7715 -0.2999
vn 0.6831 -0.6326 -0.3651
vn 0.6831 0.6326 -0.3651
vn 0.5611 -0.7715 -0.2999
vn 0.7786 0.4696 -0.4162
vn 0.4528 0.8810 -0.1374
vn 0.8448 -0.4696 -0.2563
vn 0.6088 0.7715 -0.1847
vn 0.7412 -0.6326 -0.2248
vn 0.7412 0.6326 -0.2248
vn 0.6088 -0.7715 -0.1847
vn 0.8448 0.4696 -0.2563
vn 0.4528 -0.8810 -0.1374
vn 0.9161 0.2890 -0.2779
vn 0.2790 -0.9565 -0.0846
vn 0.9524 0.0976 -0.2889
vn 0.0942 0.9951 -0.0286
vn 0.0942 -0.9951 -0.0286
vn 0.9524 -0.0976 -0.2889
vn 0.2790 0.9565 -0.0846
vn 0.9161 -0.2890 -0.2779
vn 0.9527 0.2890 -0.0938
vn 0.2902 -0.9565 -0.0286
vn 0.9904 0.0976 -0.0975
vn 0.0980 0.9951 -0.0097
vn 0.0980 -0.9951 -0.0097
vn 0.9904 -0.0976 -0.0975
vn 0.2902 0.9565 -0.0286
vn 0.9527 -0.2890 -0.0938
vn 0.4709 0.8810 -0.0464
vn 0.8786 -0.4696 -0.0865
vn 0.6332 0.7715 -0.0624
vn 0.7708 -0.6326 -0.0759
vn 0.7708 0.6326 -0.0759
vn 0.6332 -0.7715 -0.0624
vn 0.8786 0.4696 -0.0865
vn 0.4709 -0.8810 -0.0464
vn 0.8786 -0.4696 0.0865
vn 0.6332 0.7715 0.0624
vn 0.7708 -0.6326 0.0759
vn 0.7708 0.6326 0.0759
vn 0.6332 -0.7715 0.0624
vn 0.8786 0.4696 0.0865
vn 0.4709 -0.8810 0.0464
vn 0.9527 0.2890 0.0938
vn 0.2902 -0.9565 0.0286
vn 0.9904 0.0976 0.0975
vn 0.0980 0.9951 0.0097
vn 0.0980 -0.9951 0.0097
vn 0.9904 -0.0976 0.0975
vn 0.2902 0.9565 0.0286
vn 0.9527 -0.2890 0.0938
vn 0.4709 0.8810 0.0464
vn 0.2790 -0.9565 0.0846
vn 0.9524 0.0976 0.2889
vn 0.0942 0.9951 0.0286
vn 0.0942 -0.9951 0.0286
vn 0.9524 -0.0976 0.2889
vn 0.2790 0.9565 0.0846
vn 0.9161 -0.2890 0.2779
vn 0.4528 0.8810 0.1374
vn 0.8448 -0.4696 0.2563
vn 0.6088 0.7715 0.1847
vn 0.7412 -0.6326 0.2248
vn 0.7412 0.6326 0.2248
vn 0.6088 -0.7715 0.1847
vn 0.8448 0.4696 0.2563
vn 0.4528 -0.8810 0.1374
vn 0.9161 0.2890 0.2779
vn 0.6831 -0.6326 0.3651
vn 0.6831 0.6326 0.3651
vn 0.5611 -0.7715 0.2999
vn 0.7786 0.4696 0.4162
vn 0.4173 -0.8810 0.2230
vn 0.8443 0.2890 0.4513
vn 0.2571 -0.9565 0.1374
vn 0.8777 0.0976 0.4691
vn 0.0869 0.9951 0.0464
vn 0.0869 -0.9951 0.0464
vn 0.8777 -0.0976 0.4691
vn 0.2571 0.9565 0.1374
vn 0.8443 -0.2890 0.4513
vn 0.4173 0.8810 0.2230
vn 0.7786 -0.4696 0.4162
vn 0.5611 0.7715 0.2999
vn 0.0761 0.9951 0.0625
vn 0.0761 -0.9951 0.0625
vn 0.7693 -0.0976 0.6314
vn 0.2254 0.9565 0.1850
vn 0.7400 -0.2890 0.6073
vn 0.3658 0.8810 0.3002
vn 0.6825 -0.4696 0.5601
vn 0.4918 0.7715 0.4036
vn 0.5987 -0.6326 0.4913
vn 0.5987 0.6326 0.4913
vn 0.4918 -0.7715 0.4036
vn 0.6825 0.4696 0.5601
vn 0.3658 -0.8810 0.3002
vn 0.7400 0.2890 0.6073
vn 0.2254 -0.9565 0.1850
vn 0.7693 0.0976 0.6314
vn 0.4913 0.6326 0.5987
vn 0.4036 -0.7715 0.4918
vn 0.5601 0.4696 0.6825
vn 0.3002 -0.8810 0.3658
vn 0.6073 0.2890 0.7400
vn 0.1850 -0.9565 0.2254
vn 0.6314 0.0976 0.7693
vn 0.0625 0.9951 0.0761
vn 0.0625 -0.9951 0.0761
vn 0.6314 -0.0976 0.7693
vn 0.1850 0.9565 0.2254
vn 0.6073 -0.2890 0.7400
vn 0.3002 0.8810 0.3658
vn 0.5601 -0.4696 0.6825
vn 0.4036 0.7715 0.4918
vn 0.4913 -0.6326 0.5987
vn 0.4691 -0.0976 0.8777
vn 0.1374 0.9565 0.2571
vn 0.4513 -0.2890 0.8443
vn 0.2230 0.8810 0.4173
vn 0.4162 -0.4696 0.7786
vn 0.2999 0.7715 0.5611
vn 0.3651 -0.6326 0.6831
vn 0.3651 0.6326 0.6831
vn 0.2999 -0.7715 0.5611
vn 0.4162 0.4696 0.7786
vn 0.2230 -0.8810 0.4173
vn 0.4513 0.2890 0.8443
vn 0.1374 -0.9565 0.2571
vn 0.4691 0.0976 0.8777
vn 0.0464 0.9951 0.0869
vn 0.0464 -0.9951 0.0869
vn 0.1847 -0.7715 0.6088
vn 0.2563 0.4696 0.8448
vn 0.1374 -0.8810 0.4528
vn 0.2779 0.2890 0.9161
vn 0.0846 -0.9565 0.2790
vn 0.2889 0.0976 0.9524
vn 0.0286 0.9951 0.0942
vn 0.0286 -0.9951 0.0942
vn 0.2889 -0.0976 0.9524
vn 0.0846 0.9565 0.2790
vn 0.2779 -0.2890 0.9161
vn 0.1374 0.8810 0.4528
vn 0.2563 -0.4696 0.8448
vn 0.1847 0.7715 0.6088
vn 0.2248 -0.6326 0.7412
vn 0.2248 0.6326 0.7412
vn 0.0286 0.9565 0.2902
vn 0.0938 -0.2890 0.9527
vn 0.0464 0.8810 0.4709
vn 0.0865 -0.4696 0.8786
vn 0.0624 0.7715 0.6332
vn 0.0759 -0.6326 0.7708
vn 0.0759 0.6326 0.7708
vn 0.0624 -0.7715 0.6332
vn 0.0865 0.4696 0.8786
vn 0.0464 -0.8810 0.4709
vn 0.0938 0.2890 0.9527
vn 0.0286 -0.9565 0.2902
vn 0.0975 0.0976 0.9904
vn 0.0097 0.9951 0.0980
vn 0.0097 -0.9951 0.0980
vn 0.0975 -0.0976 0.9904
vn -0.0865 0.4696 0.8786
vn -0.0464 -0.8810 0.4709
vn -0.0938 0.2890 0.9527
vn -0.0286 -0.9565 0.2902
vn -0.0976 0.0976 0.9904
vn -0.0097 0.9951 0.0980
vn -0.0097 -0.9951 0.0980
vn -0.0976 -0.0976 0.9904
vn -0.0286 0.9565 0.2902
vn -0.0938 -0.2890 0.9527
vn -0.0464 0.8810 0.4709
vn -0.0865 -0.4696 0.8786
vn -0.0624 0.7715 0.6332
vn -0.0759 -0.6326 0.7708
vn -0.0759 0.6326 0.7708
vn -0.0624 -0.7715 0.6332
vn -0.2779 -0.2890 0.9161
vn -0.1374 0.8810 0.4528
vn -0.2563 -0.4696 0.8448
vn -0.1847 0.7715 0.6088
vn -0.2248 -0.6326 0.7412
vn -0.2248 0.6326 0.7412
vn -0.1847 -0.7715 0.6088
vn -0.2563 0.4696 0.8448
vn -0.1374 -0.8810 0.4528
vn -0.2779 0.2890 0.9161
vn -0.0846 -0.9565 0.2790
vn -0.2889 0.0976 0.9524
vn -0.0286 0.9951 0.0942
vn -0.0286 -0.9951 0.0942
vn -0.2889 -0.0976 0.9524
vn -0.0846 0.9565 0.2790
vn -0.2231 -0.8810 0.4173
vn -0.4513 0.2890 0.8443
vn -0.1374 -0.9565 0.2571
vn -0.4691 0.0976 0.8777
vn -0.0464 0.9951 0.0869
vn -0.0464 -0.9951 0.0869
vn -0.4691 -0.0976 0.8777
vn -0.1374 0.9565 0.2571
vn -0.4513 -0.2890 0.8443
vn -0.2230 0.8810 0.4173
vn -0.4162 -0.4696 0.7786
vn -0.2999 0.7715 0.5611
vn -0.3651 -0.6326 0.6831
vn -0.3651 0.6326 0.6831
vn -0.2999 -0.7715 0.5611
vn -0.4162 0.4696 0.7786
vn -0.5601 -0.4696 0.6825
vn -0.4036 0.7715 0.4918
vn -0.4913 -0.6326 0.5987
vn -0.4913 0.6326 0.5987
vn -0.4036 -0.7715 0.4918
vn -0.5601 0.4696 0.6825
vn -0.3002 -0.8810 0.3658
vn -0.6073 0.2890 0.7400
vn -0.1850 -0.9565 0.2254
vn -0.6314 0.0976 0.7693
vn -0.0625 0.9951 0.0761
vn -0.0625 -0.9951 0.0761
vn -0.6314 -0.0976 0.7693
vn -0.1850 0.9565 0.2254
vn -0.6073 -0.2890 0.7400
vn -0.3002 0.8810 0.3658
vn -0.2254 -0.9565 0.1850
vn -0.7693 0.0976 0.6314
vn -0.0761 0.9951 0.0625
vn -0.0761 -0.9951 0.0625
vn -0.7693 -0.0976 0.6314
vn -0.2254 0.9565 0.1850
vn -0.7400 -0.2890 0.6073
vn -0.3658 0.8810 0.3002
vn -0.6825 -0.4696 0.5601
vn -0.4918 0.7715 0.4036
vn -0.5987 -0.6326 0.4913
vn -0.5987 0.6326 0.4913
vn -0.4918 -0.7715 0.4036
vn -0.6825 0.4696 0.5601
vn -0.3658 -0.8810 0.3002
vn -0.7400 0.2890 0.6073
vn -0.5611 0.7715 0.2999
vn -0.6831 -0.6326 0.3651
vn -0.6831 0.6326 0.3651
vn -0.5611 -0.7715 0.2999
vn -0.7786 0.4696 0.4162
vn -0.4173 -0.8810 0.2230
vn -0.8443 0.2890 0.4513
vn -0.2571 -0.9565 0.1374
vn -0.8777 0.0976 0.4691
vn -0.0869 0.9951 0.0464
vn -0.0869 -0.9951 0.0464
vn -0.8777 -0.0976 0.4691
vn -0.2571 0.9565 0.1374
vn -0.8443 -0.2890 0.4513
vn -0.4173 0.8810 0.2230
vn -0.7786 -0.4696 0.4162
vn -0.9524 0.0976 0.2889
vn -0.0942 0.9951 0.0286
vn -0.0942 -0.9951 0.0286
vn -0.9524 -0.0976 0.2889
vn -0.2790 0.9565 0.0846
vn -0.9161 -0.2890 0.2779
vn -0.4528 0.8810 0.1374
vn -0.8448 -0.4696 0.2563
vn -0.6088 0.7715 0.1847
vn -0.7412 -0.6326 0.2248
vn -0.7412 0.6326 0.2248
vn -0.6088 -0.7715 0.1847
vn -0.8448 0.4696 0.2563
vn -0.4528 -0.8810 0.1374
vn -0.9161 0.2890 0.2779
vn -0.2790 -0.9565 0.0846
vn -0.7708 -0.6326 0.0759
vn -0.7708 0.6326 0.0759
vn -0.6332 -0.7715 0.0624
vn -0.8786 0.4696 0.0865
vn -0.4709 -0.8810 0.0464
vn -0.9527 0.2890 0.0938
vn -0.2902 -0.9565 0.0286
vn -0.9904 0.0976 0.0976
vn -0.0980 0.9951 0.0096
vn -0.0980 -0.9951 0.0097
vn -0.9904 -0.0976 0.0976
vn -0.2902 0.9565 0.0286
vn -0.9527 -0.2890 0.0938
vn -0.4709 0.8810 0.0464
vn -0.8786 -0.4696 0.0865
vn -0.6332 0.7715 0.0624
usemtl None
s off
f 4//1 3//1 18//1 19//1
f 12//2 11//2 26//2 27//2
f 5//3 4//3 19//3 20//3
f 13//4 12//4 27//4 28//4
f 6//5 5//5 20//5 21//5
f 14//6 13//6 28//6 29//6
f 7//7 6//7 21//7 22//7
f 15//8 14//8 29//8 30//8
f 8//9 7//9 22//9 23//9
f 1//10 452//10 16//10
f 256//11 15//11 30//11
f 9//12 8//12 23//12 24//12
f 2//13 1//13 16//13 17//13
f 10//14 9//14 24//14 25//14
f 3//15 2//15 17//15 18//15
f 11//16 10//16 25//16 26//16
f 18//17 17//17 32//17 33//17
f 26//18 25//18 40//18 41//18
f 19//19 18//19 33//19 34//19
f 27//20 26//20 41//20 42//20
f 20//21 19//21 34//21 35//21
f 28//22 27//22 42//22 43//22
f 21//23 20//23 35//23 36//23
f 29//24 28//24 43//24 44//24
f 22//25 21//25 36//25 37//25
f 30//26 29//26 44//26 45//26
f 23//27 22//27 37//27 38//27
f 16//28 452//28 31//28
f 256//29 30//29 45//29
f 24//30 23//30 38//30 39//30
f 17//31 16//31 31//31 32//31
f 25//32 24//32 39//32 40//32
f 37//33 36//33 51//33 52//33
f 45//34 44//34 59//34 60//34
f 38//35 37//35 52//35 53//35
f 31//36 452//36 46//36
f 256//37 45//37 60//37
f 39//38 38//38 53//38 54//38
f 32//39 31//39 46//39 47//39
f 40//40 39//40 54//40 55//40
f 33//41 32//41 47//41 48//41
f 41//42 40//42 55//42 56//42
f 34//43 33//43 48//43 49//43
f 42//44 41//44 56//44 57//44
f 35//45 34//45 49//45 50//45
f 43//46 42//46 57//46 58//46
f 36//47 35//47 50//47 51//47
f 44//48 43//48 58//48 59//48
f 56//49 55//49 70//49 71//49
f 49//50 48//50 63//50 64//50
f 57//51 56//51 71//51 72//51
f 50//52 49//52 64//52 65//52
f 58//53 57//53 72//53 73//53
f 51//54 50//54 65//54 66//54
f 59//55 58//55 73//55 74//55
f 52//56 51//56 66//56 67//56
f 60//57 59//57 74//57 75//57
f 53//58 52//58 67//58 68//58
f 46//59 452//59 61//59
f 256//60 60//60 75//60
f 54//61 53//61 68//61 69//61
f 47//62 46//62 61//62 62//62
f 55//63 54//63 69//63 70//63
f 48//64 47//64 62//64 63//64
f 75//65 74//65 89//65 90//65
f 68//66 67//66 82//66 83//66
f 61//67 452//67 76//67
f 256//68 75//68 90//68
f 69//69 68//69 83//69 84//69
f 62//70 61//70 76//70 77//70
f 70//71 69//71 84//71 85//71
f 63//72 62//72 77//72 78//72
f 71//73 70//73 85//73 86//73
f 64//74 63//74 78//74 79//74
f 72//75 71//75 86//75 87//75
f 65//76 64//76 79//76 80//76
f 73//77 72//77 87//77 88//77
f 66//78 65//78 80//78 81//78
f 74//79 73//79 88//79 89//79
f 67//80 66//80 81//80 82//80
f 79//81 78//81 93//81 94//81
f 87//82 86//82 101//82 102//82
f 80//83 79//83 94//83 95//83
f 88//84 87//84 102//84 103//84
f 81//85 80//85 95//85 96//85
f 89//86 88//86 103//86 104//86
f 82//87 81//87 96//87 97//87
f 90//88 89//88 104//88 105//88
f 83//89 82//89 97//89 98//89
f 76//90 452//90 91//90
f 256//91 90//91 105//91
f 84//92 83//92 98//92 99//92
f 77//93 76//93 91//93 92//93
f 85//94 84//94 99//94 100//94
f 78//95 77//95 92//95 93//95
f 86//96 85//96 100//96 101//96
f 98//97 97//97 112//97 113//97
f 91//98 452//98 106//98
f 256//99 105//99 120//99
f 99//100 98//100 113//100 114//100
f 92//101 91//101 106//101 107//101
f 100//102 99//102 114//102 115//102
f 93//103 92//103 107//103 108//103
f 101//104 100//104 115//104 116//104
f 94//105 93//105 108//105 109//105
f 102//106 101//106 116//106 117//106
f 95//107 94//107 109//107 110//107
f 103//108 102//108 117//108 118//108
f 96//109 95//109 110//109 111//109
f 104//110 103//110 118//110 119//110
f 97//111 96//111 111//111 112//111
f 105//112 104//112 119//112 120//112
f 117//113 116//113 131//113 132//113
f 110//114 109//114 124//114 125//114
f 118//115 117//115 132//115 133//115
f 111//116 110//116 125//116 126//116
f 119//117 118//117 133//117 134//117
f 112//118 111//118 126//118 127//118
f 120//119 119//119 134//119 135//119
f 113//120 112//120 127//120 128//120
f 106//121 452//121 121//121
f 256//122 120//122 135//122
f 114//123 113//123 128//123 129//123
f 107//124 106//124 121//124 122//124
f 115//125 114//125 129//125 130//125
f 108//126 107//126 122//126 123//126
f 116//127 115//127 130//127 131//127
f 109//128 108//128 123//128 124//128
f 256//129 135//129 150//129
f 129//130 128//130 143//130 144//130
f 122//131 121//131 136//131 137//131
f 130//132 129//132 144//132 145//132
f 123//133 122//133 137//133 138//133
f 131//134 130//134 145//134 146//134
f 124//135 123//135 138//135 139//135
f 132//136 131//136 146//136 147//136
f 125//137 124//137 139//137 140//137
f 133//138 132//138 147//138 148//138
f 126//139 125//139 140//139 141//139
f 134//140 133//140 148//140 149//140
f 127//141 126//141 141//141 142//141
f 135//142 134//142 149//142 150//142
f 128//143 127//143 142//143 143//143
f 121//144 452//144 136//144
f 148//145 147//145 162//145 163//145
f 141//146 140//146 155//146 156//146
f 149//147 148//147 163//147 164//147
f 142//148 141//148 156//148 157//148
f 150//149 149//149 164//149 165//149
f 143//150 142//150 157//150 158//150
f 136//151 452//151 151//151
f 256//152 150//152 165//152
f 144//153 143//153 158//153 159//153
f 137//154 136//154 151//154 152//154
f 145//155 144//155 159//155 160//155
f 138//156 137//156 152//156 153//156
f 146//157 145//157 160//157 161//157
f 139//158 138//158 153//158 154//158
f 147//159 146//159 161//159 162//159
f 140//160 139//160 154//160 155//160
f 152//161 151//161 166//161 167//161
f 160//162 159//162 174//162 175//162
f 153//163 152//163 167//163 168//163
f 161//164 160//164 175//164 176//164
f 154//165 153//165 168//165 169//165
f 162//166 161//166 176//166 177//166
f 155//167 154//167 169//167 170//167
f 163//168 162//168 177//168 178//168
f 156//169 155//169 170//169 171//169
f 164//170 163//170 178//170 179//170
f 157//171 156//171 171//171 172//171
f 165//172 164//172 179//172 180//172
f 158//173 157//173 172//173 173//173
f 151//174 452//174 166//174
f 256//175 165//175 180//175
f 159//176 158//176 173//176 174//176
f 171//177 170//177 185//177 186//177
f 179//178 178//178 193//178 194//178
f 172//179 171//179 186//179 187//179
f 180//180 179//180 194//180 195//180
f 173//181 172//181 187//181 188//181
f 166//182 452//182 181//182
f 256//183 180//183 195//183
f 174//184 173//184 188//184 189//184
f 167//185 166//185 181//185 182//185
f 175//186 174//186 189//186 190//186
f 168//187 167//187 182//187 183//187
f 176//188 175//188 190//188 191//188
f 169//189 168//189 183//189 184//189
f 177//190 176//190 191//190 192//190
f 170//191 169//191 184//191 185//191
f 178//192 177//192 192//192 193//192
f 190//193 189//193 204//193 205//193
f 183//194 182//194 197//194 198//194
f 191//195 190//195 205//195 206//195
f 184//196 183//196 198//196 199//196
f 192//197 191//197 206//197 207//197
f 185//198 184//198 199//198 200//198
f 193//199 192//199 207//199 208//199
f 186//200 185//200 200//200 201//200
f 194//201 193//201 208//201 209//201
f 187//202 186//202 201//202 202//202
f 195//203 194//203 209//203 210//203
f 188//204 187//204 202//204 203//204
f 181//205 452//205 196//205
f 256//206 195//206 210//206
f 189//207 188//207 203//207 204//207
f 182//208 181//208 196//208 197//208
f 209//209 208//209 223//209 224//209
f 202//210 201//210 216//210 217//210
f 210//211 209//211 224//211 225//211
f 203//212 202//212 217//212 218//212
f 196//213 452//213 211//213
f 256//214 210//214 225//214
f 204//215 203//215 218//215 219//215
f 197//216 196//216 211//216 212//216
f 205//217 204//217 219//217 220//217
f 198//218 197//218 212//218 213//218
f 206//219 205//219 220//219 221//219
f 199//220 198//220 213//220 214//220
f 207//221 206//221 221//221 222//221
f 200//222 199//222 214//222 215//222
f 208//223 207//223 222//223 223//223
f 201//224 200//224 215//224 216//224
f 213//225 212//225 227//225 228//225
f 221//226 220//226 235//226 236//226
f 214//227 213//227 228//227 229//227
f 222//228 221//228 236//228 237//228
f 215//229 214//229 229//229 230//229
f 223//230 222//230 237//230 238//230
f 216//231 215//231 230//231 231//231
f 224//232 223//232 238//232 239//232
f 217//233 216//233 231//233 232//233
f 225//234 224//234 239//234 240//234
f 218//235 217//235 232//235 233//235
f 211//236 452//236 226//236
f 256//237 225//237 240//237
f 219//238 218//238 233//238 234//238
f 212//239 211//239 226//239 227//239
f 220//240 219//240 234//240 235//240
f 232//241 231//241 246//241 247//241
f 240//242 239//242 254//242 255//242
f 233//243 232//243 247//243 248//243
f 226//244 452//244 241//244
f 256//245 240//245 255//245
f 234//246 233//246 248//246 249//246
f 227//247 226//247 241//247 242//247
f 235//248 234//248 249//248 250//248
f 228//249 227//249 242//249 243//249
f 236//250 235//250 250//250 251//250
f 229//251 228//251 243//251 244//251
f 237//252 236//252 251//252 252//252
f 230//253 229//253 244//253 245//253
f 238//254 237//254 252//254 253//254
f 231//255 230//255 245//255 246//255
f 239//256 238//256 253//256 254//256
f 251//257 250//257 266//257 267//257
f 244//258 243//258 259//258 260//258
f 252//259 251//259 267//259 268//259
f 245//260 244//260 260//260 261//260
f 253//261 252//261 268//261 269//261
f 246//262 245//262 261//262 262//262
f 254//263 253//263 269//263 270//263
f 247//264 246//264 262//264 263//264
f 255//265 254//265 270//265 271//265
f 248//266 247//266 263//266 264//266
f 241//267 452//267 257//267
f 256//268 255//268 271//268
f 249//269 248//269 264//269 265//269
f 242//270 241//270 257//270 258//270
f 250//271 249//271 265//271 266//271
f 243//272 242//272 258//272 259//272
f 271//273 270//273 285//273 286//273
f 264//274 263//274 278//274 279//274
f 257//275 452//275 272//275
f 256//276 271//276 286//276
f 265//277 264//277 279//277 280//277
f 258//278 257//278 272//278 273//278
f 266//279 265//279 280//279 281//279
f 259//280 258//280 273//280 274//280
f 267//281 266//281 281//281 282//281
f 260//282 259//282 274//282 275//282
f 268//283 267//283 282//283 283//283
f 261//284 260//284 275//284 276//284
f 269//285 268//285 283//285 284//285
f 262//286 261//286 276//286 277//286
f 270//287 269//287 284//287 285//287
f 263//288 262//288 277//288 278//288
f 283//289 282//289 297//289 298//289
f 276//290 275//290 290//290 291//290
f 284//291 283//291 298//291 299//291
f 277//292 276//292 291//292 292//292
f 285//293 284//293 299//293 300//293
f 278//294 277//294 292//294 293//294
f 286//295 285//295 300//295 301//295
f 279//296 278//296 293//296 294//296
f 272//297 452//297 287//297
f 256//298 286//298 301//298
f 280//299 279//299 294//299 295//299
f 273//300 272//300 287//300 288//300
f 281//301 280//301 295//301 296//301
f 274//302 273//302 288//302 289//302
f 282//303 281//303 296//303 297//303
f 275//304 274//304 289//304 290//304
f 287//305 452//305 302//305
f 256//306 301//306 316//306
f 295//307 294//307 309//307 310//307
f 288//308 287//308 302//308 303//308
f 296//309 295//309 310//309 311//309
f 289//310 288//310 303//310 304//310
f 297//311 296//311 311//311 312//311
f 290//312 289//312 304//312 305//312
f 298//313 297//313 312//313 313//313
f 291//314 290//314 305//314 306//314
f 299//315 298//315 313//315 314//315
f 292//316 291//316 306//316 307//316
f 300//317 299//317 314//317 315//317
f 293//318 292//318 307//318 308//318
f 301//319 300//319 315//319 316//319
f 294//320 293//320 308//320 309//320
f 306//321 305//321 320//321 321//321
f 314//322 313//322 328//322 329//322
f 307//323 306//323 321//323 322//323
f 315//324 314//324 329//324 330//324
f 308//325 307//325 322//325 323//325
f 316//326 315//326 330//326 331//326
f 309//327 308//327 323//327 324//327
f 302//328 452//328 317//328
f 256//329 316//329 331//329
f 310//330 309//330 324//330 325//330
f 303//331 302//331 317//331 318//331
f 311//332 310//332 325//332 326//332
f 304//333 303//333 318//333 319//333
f 312//334 311//334 326//334 327//334
f 305//335 304//335 319//335 320//335
f 313//336 312//336 327//336 328//336
f 325//337 324//337 339//337 340//337
f 318//338 317//338 332//338 333//338
f 326//339 325//339 340//339 341//339
f 319//340 318//340 333//340 334//340
f 327//341 326//341 341//341 342//341
f 320//342 319//342 334//342 335//342
f 328//343 327//343 342//343 343//343
f 321//344 320//344 335//344 336//344
f 329//345 328//345 343//345 344//345
f 322//346 321//346 336//346 337//346
f 330//347 329//347 344//347 345//347
f 323//348 322//348 337//348 338//348
f 331//349 330//349 345//349 346//349
f 324//350 323//350 338//350 339//350
f 317//351 452//351 332//351
f 256//352 331//352 346//352
f 344//353 343//353 358//353 359//353
f 337//354 336//354 351//354 352//354
f 345//355 344//355 359//355 360//355
f 338//356 337//356 352//356 353//356
f 346//357 345//357 360//357 361//357
f 339//358 338//358 353//358 354//358
f 332//359 452//359 347//359
f 256//360 346//360 361//360
f 340//361 339//361 354//361 355//361
f 333//362 332//362 347//362 348//362
f 341//363 340//363 355//363 356//363
f 334//364 333//364 348//364 349//364
f 342//365 341//365 356//365 357//365
f 335//366 334//366 349//366 350//366
f 343//367 342//367 357//367 358//367
f 336//368 335//368 350//368 351//368
f 348//369 347//369 362//369 363//369
f 356//370 355//370 370//370 371//370
f 349//371 348//371 363//371 364//371
f 357//372 356//372 371//372 372//372
f 350//373 349//373 364//373 365//373
f 358//374 357//374 372//374 373//374
f 351//375 350//375 365//375 366//375
f 359//376 358//376 373//376 374//376
f 352//377 351//377 366//377 367//377
f 360//378 359//378 374//378 375//378
f 353//379 352//379 367//379 368//379
f 361//380 360//380 375//380 376//380
f 354//381 353//381 368//381 369//381
f 347//382 452//382 362//382
f 256//383 361//383 376//383
f 355//384 354//384 369//384 370//384
f 367//385 366//385 381//385 382//385
f 375//386 374//386 389//386 390//386
f 368//387 367//387 382//387 383//387
f 376//388 375//388 390//388 391//388
f 369//389 368//389 383//389 384//389
f 362//390 452//390 377//390
f 256//391 376//391 391//391
f 370//392 369//392 384//392 385//392
f 363//393 362//393 377//393 378//393
f 371//394 370//394 385//394 386//394
f 364//395 363//395 378//395 379//395
f 372//396 371//396 386//396 387//396
f 365//397 364//397 379//397 380//397
f 373//398 372//398 387//398 388//398
f 366//399 365//399 380//399 381//399
f 374//400 373//400 388//400 389//400
f 386//401 385//401 400//401 401//401
f 379//402 378//402 393//402 394//402
f 387//403 386//403 401//403 402//403
f 380//404 379//404 394//404 395//404
f 388//405 387//405 402//405 403//405
f 381//406 380//406 395//406 396//406
f 389//407 388//407 403//407 404//407
f 382//408 381//408 396//408 397//408
f 390//409 389//409 404//409 405//409
f 383//410 382//410 397//410 398//410
f 391//411 390//411 405//411 406//411
f 384//412 383//412 398//412 399//412
f 377//413 452//413 392//413
f 256//414 391//414 406//414
f 385//415 384//415 399//415 400//415
f 378//416 377//416 392//416 393//416
f 405//417 404//417 419//417 420//417
f 398//418 397//418 412//418 413//418
f 406//419 405//419 420//419 421//419
f 399//420 398//420 413//420 414//420
f 392//421 452//421 407//421
f 256//422 406//422 421//422
f 400//423 399//423 414//423 415//423
f 393//424 392//424 407//424 408//424
f 401//425 400//425 415//425 416//425
f 394//426 393//426 408//426 409//426
f 402//427 401//427 416//427 417//427
f 395//428 394//428 409//428 410//428
f 403//429 402//429 417//429 418//429
f 396//430 395//430 410//430 411//430
f 404//431 403//431 418//431 419//431
f 397//432 396//432 411//432 412//432
f 417//433 416//433 431//433 432//433
f 410//434 409//434 424//434 425//434
f 418//435 417//435 432//435 433//435
f 411//436 410//436 425//436 426//436
f 419//437 418//437 433//437 434//437
f 412//438 411//438 426//438 427//438
f 420//439 419//439 434//439 435//439
f 413//440 412//440 427//440 428//440
f 421//441 420//441 435//441 436//441
f 414//442 413//442 428//442 429//442
f 407//443 452//443 422//443
f 256//444 421//444 436//444
f 415//445 414//445 429//445 430//445
f 408//446 407//446 422//446 423//446
f 416//447 415//447 430//447 431//447
f 409//448 408//448 423//448 424//448
f 436//449 435//449 450//449 451//449
f 429//450 428//450 443//450 444//450
f 422//451 452//451 437//451
f 256//452 436//452 451//452
f 430//453 429//453 444//453 445//453
f 423//454 422//454 437//454 438//454
f 431//455 430//455 445//455 446//455
f 424//456 423//456 438//456 439//456
f 432//457 431//457 446//457 447//457
f 425//458 424//458 439//458 440//458
f 433//459 432//459 447//459 448//459
f 426//460 425//460 440//460 441//460
f 434//461 433//461 448//461 449//461
f 427//462 426//462 441//462 442//462
f 435//463 434//463 449//463 450//463
f 428//464 427//464 442//464 443//464
f 440//465 439//465 455//465 456//465
f 448//466 447//466 463//466 464//466
f 441//467 440//467 456//467 457//467
f 449//468 448//468 464//468 465//468
f 442//469 441//469 457//469 458//469
f 450//470 449//470 465//470 466//470
f 443//471 442//471 458//471 459//471
f 451//472 450//472 466//472 467//472
f 444//473 443//473 459//473 460//473
f 437//474 452//474 453//474
f 256//475 451//475 467//475
f 445//476 444//476 460//476 461//476
f 438//477 437//477 453//477 454//477
f 446//478 445//478 461//478 462//478
f 439//479 438//479 454//479 455//479
f 447//480 446//480 462//480 463//480
f 460//481 459//481 474//481 475//481
f 453//482 452//482 468//482
f 256//483 467//483 482//483
f 461//484 460//484 475//484 476//484
f 454//485 453//485 468//485 469//485
f 462//486 461//486 476//486 477//486
f 455//487 454//487 469//487 470//487
f 463//488 462//488 477//488 478//488
f 456//489 455//489 470//489 471//489
f 464//490 463//490 478//490 479//490
f 457//491 456//491 471//491 472//491
f 465//492 464//492 479//492 480//492
f 458//493 457//493 472//493 473//493
f 466//494 465//494 480//494 481//494
f 459//495 458//495 473//495 474//495
f 467//496 466//496 481//496 482//496
f 479//497 478//497 11//497 12//497
f 472//498 471//498 4//498 5//498
f 480//499 479//499 12//499 13//499
f 473//500 472//500 5//500 6//500
f 481//501 480//501 13//501 14//501
f 474//502 473//502 6//502 7//502
f 482//503 481//503 14//503 15//503
f 475//504 474//504 7//504 8//504
f 468//505 452//505 1//505
f 256//506 482//506 15//506
f 476//507 475//507 8//507 9//507
f 469//508 468//508 1//508 2//508
f 477//509 476//509 9//509 10//509
f 470//510 469//510 2//510 3//510
f 478//511 477//511 10//511 11//511
f 471//512 470//512 3//512 4//512
